"0","r_fam_divTime <- r_fam_k <- r_fam_divLength <- NULL"
"0","params_fam_divTime <- params_fam_k <- params_fam_divLength <- NULL"
"0","for (i_gen in 2:11)"
"0","{"
"0","  #estimate correlation of cousins pairs division length per generation and plot the corresponding scatter plot  "
"0","  params <- plot_dot_attr_fam(DT = FDT, attr = ""length_division"", unit = ""μm"", type = ""c"", gens = i_gen, Ngens = 12)"
"0","  r_fam_divLength <- c(r_fam_divLength, params$r)"
"0","  params_fam_divLength <- c(params_fam_divLength, params)"
"0","  #estimate correlation of cousins pairs division time per generation and plot the corresponding scatter plot"
"0","  params <- plot_dot_attr_fam(DT = FDT, attr = ""time_division"", unit = ""t.u."", type = ""c"", gens = i_gen, Ngens = 12)"
"0","  r_fam_divTime <- c(r_fam_divTime, params$r)"
"0","  params_fam_divTime <- c(params_fam_divTime, params)    "
"0","}"
