"0","plot_tree(tree = FLT, treeT = ""LT"", attrC = ""InvF"", unitC=""a.u."", NC = 12, attrS = """", cellsC = """", colorCol = FALSE, showLabels = FALSE, circular = TRUE, showLegends = TRUE, sizeV = 0.4, sizeE = 0.3, save = TRUE, savePars = list(w = 8000, h = 8000, res = 300, path = getwd(), name = ""Fig 16""))"
"1","Exporting figure to:"
"1"," "
"1","~/Case study III/Fig 16_8000x8000_300.png
"
